EESchema Schematic File Version 2
LIBS:power
LIBS:device
LIBS:transistors
LIBS:conn
LIBS:linear
LIBS:regul
LIBS:74xx
LIBS:cmos4000
LIBS:adc-dac
LIBS:memory
LIBS:xilinx
LIBS:microcontrollers
LIBS:dsp
LIBS:microchip
LIBS:analog_switches
LIBS:motorola
LIBS:texas
LIBS:intel
LIBS:audio
LIBS:interface
LIBS:digital-audio
LIBS:philips
LIBS:display
LIBS:cypress
LIBS:siliconi
LIBS:opto
LIBS:atmel
LIBS:contrib
LIBS:valves
LIBS:ESP8266
LIBS:luabotv2-cache
EELAYER 25 0
EELAYER END
$Descr A4 11693 8268
encoding utf-8
Sheet 1 1
Title "Luabot v 2.0"
Date "2017-04-07"
Rev "1"
Comp "Hijos de Pachamama"
Comment1 "crpulidog@unal.edu.co"
Comment2 "Carolina Rosa Pulido Gómez"
Comment3 "jgcubidesc@unal.edu.co"
Comment4 "Johnny Germán Cubides Castro"
$EndDescr
$Comp
L LM1117-3.3 U2
U 1 1 58D9D5A0
P 4350 2450
F 0 "U2" H 4450 2200 50  0000 C CNN
F 1 "LM1117-3.3" H 4350 2700 50  0000 C CNN
F 2 "" H 4350 2450 50  0000 C CNN
F 3 "" H 4350 2450 50  0000 C CNN
	1    4350 2450
	1    0    0    -1  
$EndComp
$Comp
L ESP-07v2 U1
U 1 1 58D9D7E4
P 2450 4650
F 0 "U1" H 2450 4550 50  0000 C CNN
F 1 "ESP-07v2" H 2450 4750 50  0000 C CNN
F 2 "" H 2450 4650 50  0001 C CNN
F 3 "" H 2450 4650 50  0001 C CNN
	1    2450 4650
	1    0    0    -1  
$EndComp
$Comp
L Jumper_NC_Dual JP1
U 1 1 58D9DBC2
P 4400 1250
F 0 "JP1" H 4450 1150 50  0000 L CNN
F 1 "Jumper_NC_Dual" H 4400 1350 50  0000 C BNN
F 2 "" H 4400 1250 50  0000 C CNN
F 3 "" H 4400 1250 50  0000 C CNN
	1    4400 1250
	1    0    0    -1  
$EndComp
Text GLabel 1150 4350 0    60   Input ~ 0
Reset
Text GLabel 1450 4450 0    60   Input ~ 0
ADC
Text GLabel 1150 4550 0    60   Input ~ 0
CH_PD
Text GLabel 1450 4650 0    60   BiDi ~ 0
D0
Text GLabel 1150 4750 0    60   BiDi ~ 0
D5
Text GLabel 1450 4850 0    60   BiDi ~ 0
D6
Text GLabel 1150 4950 0    60   BiDi ~ 0
D7
Text GLabel 3450 4350 2    60   Output ~ 0
TX
Text GLabel 3700 4450 2    60   Input ~ 0
RX
Text GLabel 3450 4550 2    60   BiDi ~ 0
D2
Text GLabel 3800 4650 2    60   BiDi ~ 0
D1
Text GLabel 3450 4750 2    60   Input ~ 0
FLASH
Text GLabel 3800 4850 2    60   BiDi ~ 0
O2
Text GLabel 3450 4950 2    60   BiDi ~ 0
O15
Wire Wire Line
	3350 4350 3450 4350
Wire Wire Line
	3350 4450 3700 4450
Wire Wire Line
	3350 4550 3450 4550
Wire Wire Line
	3350 4650 3800 4650
Wire Wire Line
	3350 4750 3450 4750
Wire Wire Line
	3350 4850 3800 4850
Wire Wire Line
	3350 4950 3450 4950
Wire Wire Line
	1550 4350 1150 4350
Wire Wire Line
	1550 4450 1450 4450
Wire Wire Line
	1550 4550 1150 4550
Wire Wire Line
	1550 4650 1450 4650
Wire Wire Line
	1150 4750 1550 4750
Wire Wire Line
	1550 4850 1450 4850
Wire Wire Line
	1550 4950 1150 4950
$Comp
L +3.3V #PWR?
U 1 1 58E7D7E7
P 2450 3650
F 0 "#PWR?" H 2450 3500 50  0001 C CNN
F 1 "+3.3V" H 2450 3790 50  0000 C CNN
F 2 "" H 2450 3650 50  0000 C CNN
F 3 "" H 2450 3650 50  0000 C CNN
	1    2450 3650
	1    0    0    -1  
$EndComp
Wire Wire Line
	2450 3750 2450 3650
$Comp
L GND #PWR?
U 1 1 58E7D826
P 2450 5650
F 0 "#PWR?" H 2450 5400 50  0001 C CNN
F 1 "GND" H 2450 5500 50  0000 C CNN
F 2 "" H 2450 5650 50  0000 C CNN
F 3 "" H 2450 5650 50  0000 C CNN
	1    2450 5650
	1    0    0    -1  
$EndComp
Wire Wire Line
	2450 5550 2450 5650
$Comp
L C C3
U 1 1 58E7DD05
P 2750 3700
F 0 "C3" H 2775 3800 50  0000 L CNN
F 1 "100pF" H 2775 3600 50  0000 L CNN
F 2 "" H 2788 3550 50  0000 C CNN
F 3 "" H 2750 3700 50  0000 C CNN
	1    2750 3700
	0    1    1    0   
$EndComp
Wire Wire Line
	2600 3700 2450 3700
Connection ~ 2450 3700
Text GLabel 4800 4650 0    60   Output ~ 0
ADC
$Comp
L R R7
U 1 1 58E7E12F
P 4950 4400
F 0 "R7" V 5030 4400 50  0000 C CNN
F 1 "220k" V 4950 4400 50  0000 C CNN
F 2 "" V 4880 4400 50  0000 C CNN
F 3 "" H 4950 4400 50  0000 C CNN
	1    4950 4400
	1    0    0    -1  
$EndComp
$Comp
L R R6
U 1 1 58E7E174
P 4950 4900
F 0 "R6" V 5030 4900 50  0000 C CNN
F 1 "100k" V 4950 4900 50  0000 C CNN
F 2 "" V 4880 4900 50  0000 C CNN
F 3 "" H 4950 4900 50  0000 C CNN
	1    4950 4900
	1    0    0    -1  
$EndComp
$Comp
L GND #PWR?
U 1 1 58E7E460
P 4950 5150
F 0 "#PWR?" H 4950 4900 50  0001 C CNN
F 1 "GND" H 4950 5000 50  0000 C CNN
F 2 "" H 4950 5150 50  0000 C CNN
F 3 "" H 4950 5150 50  0000 C CNN
	1    4950 5150
	1    0    0    -1  
$EndComp
Wire Wire Line
	4950 4750 4950 4550
Wire Wire Line
	4800 4650 4950 4650
Connection ~ 4950 4650
Wire Wire Line
	4950 5050 4950 5150
Text GLabel 4950 4100 1    60   Input ~ 0
ADC_EXT
Wire Wire Line
	4950 4100 4950 4250
$Comp
L BARREL_JACK CON1
U 1 1 58E7FD52
P 1350 1300
F 0 "CON1" H 1350 1550 50  0000 C CNN
F 1 "BARREL_JACK" H 1350 1100 50  0000 C CNN
F 2 "" H 1350 1300 50  0000 C CNN
F 3 "" H 1350 1300 50  0000 C CNN
	1    1350 1300
	1    0    0    -1  
$EndComp
$Comp
L GND #PWR?
U 1 1 58E7FF25
P 1750 1500
F 0 "#PWR?" H 1750 1250 50  0001 C CNN
F 1 "GND" H 1750 1350 50  0000 C CNN
F 2 "" H 1750 1500 50  0000 C CNN
F 3 "" H 1750 1500 50  0000 C CNN
	1    1750 1500
	1    0    0    -1  
$EndComp
Wire Wire Line
	1750 1500 1750 1300
Wire Wire Line
	1750 1300 1650 1300
Wire Wire Line
	1650 1400 1750 1400
Connection ~ 1750 1400
Text GLabel 1850 1200 2    60   Output ~ 0
+5V_CARGADOR
Wire Wire Line
	1850 1200 1650 1200
$Comp
L CONN_01X04 P1
U 1 1 58E8025D
P 1150 2600
F 0 "P1" H 1150 2850 50  0000 C CNN
F 1 "CONN_01X04" V 1250 2600 50  0000 C CNN
F 2 "" H 1150 2600 50  0000 C CNN
F 3 "" H 1150 2600 50  0000 C CNN
	1    1150 2600
	-1   0    0    1   
$EndComp
Text GLabel 1700 2450 2    60   Output ~ 0
+5V_USB
Text GLabel 1450 2550 2    60   Output ~ 0
RX
Text GLabel 1650 2650 2    60   Input ~ 0
TX
Wire Wire Line
	1650 2650 1350 2650
Wire Wire Line
	1450 2550 1350 2550
Wire Wire Line
	1700 2450 1350 2450
$Comp
L GND #PWR?
U 1 1 58E805BE
P 1450 2850
F 0 "#PWR?" H 1450 2600 50  0001 C CNN
F 1 "GND" H 1450 2700 50  0000 C CNN
F 2 "" H 1450 2850 50  0000 C CNN
F 3 "" H 1450 2850 50  0000 C CNN
	1    1450 2850
	1    0    0    -1  
$EndComp
Wire Wire Line
	1350 2750 1450 2750
Wire Wire Line
	1450 2750 1450 2850
Text GLabel 4850 1250 2    60   Input ~ 0
+5V_CARGADOR
Text GLabel 4000 1250 0    60   Input ~ 0
+5V_USB
Wire Wire Line
	4150 1250 4000 1250
Wire Wire Line
	4850 1250 4650 1250
$Comp
L +5V #PWR?
U 1 1 58E80BC8
P 4400 1500
F 0 "#PWR?" H 4400 1350 50  0001 C CNN
F 1 "+5V" H 4400 1640 50  0000 C CNN
F 2 "" H 4400 1500 50  0000 C CNN
F 3 "" H 4400 1500 50  0000 C CNN
	1    4400 1500
	-1   0    0    1   
$EndComp
Wire Wire Line
	4400 1500 4400 1350
$Comp
L +5V #PWR?
U 1 1 58E80F27
P 3950 2350
F 0 "#PWR?" H 3950 2200 50  0001 C CNN
F 1 "+5V" H 3950 2490 50  0000 C CNN
F 2 "" H 3950 2350 50  0000 C CNN
F 3 "" H 3950 2350 50  0000 C CNN
	1    3950 2350
	1    0    0    -1  
$EndComp
Wire Wire Line
	4050 2450 3950 2450
Wire Wire Line
	3950 2450 3950 2350
$Comp
L +3.3V #PWR?
U 1 1 58E81034
P 4750 2350
F 0 "#PWR?" H 4750 2200 50  0001 C CNN
F 1 "+3.3V" H 4750 2490 50  0000 C CNN
F 2 "" H 4750 2350 50  0000 C CNN
F 3 "" H 4750 2350 50  0000 C CNN
	1    4750 2350
	1    0    0    -1  
$EndComp
Wire Wire Line
	4650 2450 4750 2450
Wire Wire Line
	4750 2450 4750 2350
$Comp
L GND #PWR?
U 1 1 58E8117B
P 4350 2850
F 0 "#PWR?" H 4350 2600 50  0001 C CNN
F 1 "GND" H 4350 2700 50  0000 C CNN
F 2 "" H 4350 2850 50  0000 C CNN
F 3 "" H 4350 2850 50  0000 C CNN
	1    4350 2850
	1    0    0    -1  
$EndComp
$Comp
L GND #PWR?
U 1 1 58E8140E
P 3000 3700
F 0 "#PWR?" H 3000 3450 50  0001 C CNN
F 1 "GND" H 3000 3550 50  0000 C CNN
F 2 "" H 3000 3700 50  0000 C CNN
F 3 "" H 3000 3700 50  0000 C CNN
	1    3000 3700
	0    -1   -1   0   
$EndComp
Wire Wire Line
	3000 3700 2900 3700
Text Notes 2700 3550 0    60   ~ 0
Condensador Baipás\n(debe estar ubicado junto\nal pin del esp8266 inidicado)
$Comp
L CP1 C2
U 1 1 58E81762
P 5000 2600
F 0 "C2" H 5025 2700 50  0000 L CNN
F 1 "330µF" H 5025 2500 50  0000 L CNN
F 2 "" H 5000 2600 50  0000 C CNN
F 3 "" H 5000 2600 50  0000 C CNN
	1    5000 2600
	1    0    0    -1  
$EndComp
$Comp
L CP1 C1
U 1 1 58E817E5
P 3700 2600
F 0 "C1" H 3725 2700 50  0000 L CNN
F 1 "330µF" H 3725 2500 50  0000 L CNN
F 2 "" H 3700 2600 50  0000 C CNN
F 3 "" H 3700 2600 50  0000 C CNN
	1    3700 2600
	1    0    0    -1  
$EndComp
$Comp
L GND #PWR?
U 1 1 58E81930
P 3700 2850
F 0 "#PWR?" H 3700 2600 50  0001 C CNN
F 1 "GND" H 3700 2700 50  0000 C CNN
F 2 "" H 3700 2850 50  0000 C CNN
F 3 "" H 3700 2850 50  0000 C CNN
	1    3700 2850
	1    0    0    -1  
$EndComp
$Comp
L GND #PWR?
U 1 1 58E81959
P 5000 2850
F 0 "#PWR?" H 5000 2600 50  0001 C CNN
F 1 "GND" H 5000 2700 50  0000 C CNN
F 2 "" H 5000 2850 50  0000 C CNN
F 3 "" H 5000 2850 50  0000 C CNN
	1    5000 2850
	1    0    0    -1  
$EndComp
$Comp
L +5V #PWR?
U 1 1 58E81A7B
P 3700 2350
F 0 "#PWR?" H 3700 2200 50  0001 C CNN
F 1 "+5V" H 3700 2490 50  0000 C CNN
F 2 "" H 3700 2350 50  0000 C CNN
F 3 "" H 3700 2350 50  0000 C CNN
	1    3700 2350
	1    0    0    -1  
$EndComp
$Comp
L +3.3V #PWR?
U 1 1 58E81AA4
P 5000 2350
F 0 "#PWR?" H 5000 2200 50  0001 C CNN
F 1 "+3.3V" H 5000 2490 50  0000 C CNN
F 2 "" H 5000 2350 50  0000 C CNN
F 3 "" H 5000 2350 50  0000 C CNN
	1    5000 2350
	1    0    0    -1  
$EndComp
Wire Wire Line
	5000 2350 5000 2450
Wire Wire Line
	3700 2350 3700 2450
Wire Wire Line
	3700 2750 3700 2850
Wire Wire Line
	5000 2750 5000 2850
Wire Wire Line
	4350 2750 4350 2850
Text Notes 5100 4800 0    60   ~ 0
Conversor ADC:\nR7 y R6 son\nresistencias de\nprecisión (1%)
Text Notes 1050 950  0    60   ~ 0
Alimentación de energía\n12V a 5V
Text Notes 4100 1050 0    60   ~ 0
Selector de alimentación\nde energía
Text Notes 3700 2100 0    60   ~ 0
Regulador de tensión\nVin a 3.3 V
Text Notes 1000 2300 0    60   ~ 0
Comunicación serial\nRX-TX y alimentación\nUSB 5V
$EndSCHEMATC
